Term,Label
otorga,INFO-ZONA
confiere,APODERADO
a favor,APODERADO
hermana,PARENTESCO
juana,NOM
maria,NOM
oliver,APE1
martinez,APE2
divorciada,EST_CIVIL
palma,MUNICIPIO
25,NUMERO
3º,PLA
e,PTA
dni,TIP_ID
42984831q,NUM_ID
don,GENERO
ramón,NOM
oliver,APE1
mayol,APE2
doña,GENERO
josefina,NOM
martínez,APE1
terrer,APE2
extendido,EXTENDIDA
tres,NUMERO
