Term,Label
interviene,INFO-ZONA
en nombre y representación,TIPO_INTER
entidad,SOCIEDAD
denominada,SOCIEDAD
"fruits joan serra, sl",NOM_SOCIEDAD
08040,NUMERO
barcelona,MUNICIPIO
"mercabarna, pabellón",RESTO_DIREC
b,RESTO_DIREC
2050,NUMERO
cif,TIP_ID
b60814399,CIF_PAS_NUM
escritura,ESCRITURA_DE
notario,NOTARIO
barcelona,MUNICIPIO
don,GENERO
joaquín,NOM
borruel,APE1
otín,APE2
22 de marzo de 1995,FECHA
registro mercantil,REGISTRO
barcelona,MUNICIPIO
tomo,DATOS_REG
28013,NUMERO
folio,DATOS_REG
100,NUMERO
hoja,DATOS_REG
130476,NUMERO
inscripción,DATOS_REG
1ª,NUMERO
escritura,ESCRITURA_DE
elevación de acuerdos,ACT_JUR
notario,NOTARIO
barcelona,MUNICIPIO
señor,GENERO
borruel,APE1
otín,APE2
8 de mayo de 1998,FECHA
1663,NUMERO
registro mercantil,REGISTRO
barcelona,MUNICIPIO
tomo,DATOS_REG
28103,NUMERO
folio,DATOS_REG
103,NUMERO
hoja,DATOS_REG
130476,NUMERO
inscripción,DATOS_REG
4ª,NUMERO
administrador solidario,CARGO_REP
sociedad,SOCIEDAD
5 de mayo de 1998,FECHA
elevación de acuerdos,ACT_JUR
poder para pleitos,ACT_JUR
titular real,TITULAR_REAL
acta,ACT_JUR
por mi,NOTARIO
veintisiete de octubre de dos mil quince,FECHA
7873,NUMERO
poder para pleitos,ACT_JUR
