"Term","Label"
"sustitución de poder","ACT_JUR"
"poder","ACT_JUR"
"dos","NUMERO"
"zaragoza","MUNICIPIO"
"veintinueve de julio de dos mil veinte","FECHA"
"ante mí","NOTARIO"
"carlos","NOM"
"mateo","NOM"
"martinez","APE1"
"de bartolome","APE2"
"aragón","COLEGIO"
"zaragoza","MUNICIPIO"
