Term,Label
facultades,INFO-ZONA
escritura,ESCRITURA_DE
poder,ACT_JUR
dispone,INFO-ZONA
confiere,APODERADO
poder,ACT_JUR
procuradora,APODERADO
zaragoza,MUNICIPIO
doña,GENERO
celia,NOM
cebrian,APE1
orgaz,APE2
letrada,APODERADO
doña,GENERO
mercedes,NOM
arraiza,APE1
facultades,INFO-ZONA
poder general para pleitos,ACT_JUR
autorización,INFO-ZONA
declaración de herederos,ACT_JUR
intervención,INFO-ZONA
en nombre de la,TIPO_INTER
otorgamiento,INFO-ZONA
autorizacion,INFO-ZONA
protección de datos,INFO-ZONA
extendido,EXTENDIDA
cuatro,NUMERO
