Term,Label
interviene,INFO-ZONA
en nombre y representación,TIPO_INTER
mercantil,SOCIEDAD
denominada,SOCIEDAD
"rivasam intercontinental, sa",NOM_SOCIEDAD
zuera,MUNICIPIO
zaragoza,PROVINCIA
polígono,TIP_VIA
el campillo,VIA
75,NUMERO
indefinido,DURACION_AUT
"rivasam, compañía internacional de productos alimenticios, sa",NOM_SOCIEDAD
escritura,ESCRITURA_DE
21 de junio de 1999,FECHA
notario,NOTARIO
zaragoza,MUNICIPIO
don,GENERO
josé,NOM
luis,NOM
de miguel,NOM
fernández,APE2
2480,NUMERO
escritura,ESCRITURA_DE
11 de julio de 2006,FECHA
notario,NOTARIO
zaragoza,MUNICIPIO
don,GENERO
josé,NOM
luis,NOM
de miguel,NOM
fernández,APE2
2551,NUMERO
escritura,ESCRITURA_DE
29 de febrero de 2008,FECHA
notario,NOTARIO
don,GENERO
josé,NOM
luis,NOM
de miguel,NOM
fernández,APE2
638,NUMERO
escritura,ESCRITURA_DE
29 de noviembre de 2013,FECHA
notario,NOTARIO
zaragoza,MUNICIPIO
doña,GENERO
maría,NOM
del pilar,NOM
torres,APE1
serrano,APE2
4040,NUMERO
registro mercantil,REGISTRO
zaragoza,MUNICIPIO
tomo,DATOS_REG
3417,NUMERO
folio,DATOS_REG
123,NUMERO
hoja,DATOS_REG
25122,NUMERO
cif,TIP_ID
a50807445,CIF_PAS_NUM
sociedad,SOCIEDAD
titulares reales,TITULAR_REAL
acta,ACT_JUR
notario,NOTARIO
15 de junio de 2017,FECHA
1529,NUMERO
representante,EL_TITULAR_REAL
sociedad,SOCIEDAD
representación,REPRESENTANTE
administrador único,CARGO_REP
indefinido,DURACION_AUT
4 de marzo de 2015,FECHA
notario,NOTARIO
zaragoza,MUNICIPIO
doña,GENERO
maría,NOM
del pilar,NOM
torres,APE1
serrano,APE2
368,NUMERO
inscripción,DATOS_REG
21ª,NUMERO
sociedad,SOCIEDAD
