Term,Label
ochocientos treinta y ocho,NUMERO
poder general,ACT_JUR
subsistencia de efectos,ACT_JUR
barcelona,MUNICIPIO
once de marzo de dos mil veintiuno,FECHA
ante mí,NOTARIO
rosa,NOM
maría,NOM
perez,APE1
paniagua,APE2
cataluña,COLEGIO
