Term,Label
dice y otorga,INFO-ZONA
confiere,APODERADO
poder general,ACT_JUR
a favor,APODERADO
hija,PARENTESCO
doña,GENERO
laura,NOM
pascal,APE1
mir,APE2
jubilada,PROFESION
casada,EST_CIVIL
08025,NUMERO
barcelona,MUNICIPIO
calle,TIP_VIA
provença,VIA
525,NUMERO
4º,PLA
3ª,PTA
dni,TIP_ID
37654711p,NUM_ID
en nombre y representación,TIPO_INTER
escritura,ESCRITURA_DE
otorgamiento,INFO-ZONA
autorización,INFO-ZONA
extendido,EXTENDIDA
siete,NUMERO
doy fe,INFO-ZONA
diligencia,INFO-ZONA
barcelona,MUNICIPIO
once de marzo de dos mil veintiuno,FECHA
diligencia,INFO-ZONA
doy fe,INFO-ZONA
diligencia,INFO-ZONA
doy fe,INFO-ZONA
barcelona,MUNICIPIO
veinte de julio de dos mil veinte,FECHA
pérez,APE1
paniagua,APE2
escritura,ESCRITURA_DE
1ª,NUMERO
diligencia,INFO-ZONA
