Term,Label
otorga,INFO-ZONA
confiere,APODERADO
a favor,APODERADO
padres,PARENTESCO
don,GENERO
juan,NOM
carlos,NOM
gracia,APE1
inglés,APE2
doña,GENERO
maría,NOM
carmen,NOM
aliaga,APE1
aliaga,APE2
casados,EST_CIVIL
supletorio de consorcio conyugal,REG_ECO
muel,MUNICIPIO
zaragoza,PROVINCIA
ctra,TIP_VIA
"villar de los navarros,",VIA
17,NUMERO
dni,TIP_ID
17860450f,NUM_ID
17868690j,NUM_ID
extendido,EXTENDIDA
cinco,NUMERO
