"Term","Label"
"finca","OBJETO"
1600000,"NUMERO"
"finca","OBJETO"
600000,"NUMERO"
"finca","OBJETO"
4600000,"NUMERO"
"finca","OBJETO"
2600000,"NUMERO"
"finca","OBJETO"
3600000,"NUMERO"
"finca","OBJETO"
11600000,"NUMERO"
"finca","OBJETO"
100000,"NUMERO"
"finca","OBJETO"
1600000,"NUMERO"
"finca","OBJETO"
600000,"NUMERO"
"finca","OBJETO"
4600000,"NUMERO"
"finca","OBJETO"
2600000,"NUMERO"
"finca","OBJETO"
3600000,"NUMERO"
"finca","OBJETO"
11600000,"NUMERO"
"finca","OBJETO"
100000,"NUMERO"
"finca","OBJETO"
1600000,"NUMERO"
"finca","OBJETO"
600000,"NUMERO"
"finca","OBJETO"
4600000,"NUMERO"
"finca","OBJETO"
2600000,"NUMERO"
"finca","OBJETO"
3600000,"NUMERO"
"finca","OBJETO"
11600000,"NUMERO"
"finca","OBJETO"
100000,"NUMERO"
"finca","OBJETO"
1600000,"NUMERO"
"finca","OBJETO"
600000,"NUMERO"
"finca","OBJETO"
4600000,"NUMERO"
"finca","OBJETO"
2600000,"NUMERO"
"finca","OBJETO"
3600000,"NUMERO"
"finca","OBJETO"
11600000,"NUMERO"
"finca","OBJETO"
100000,"NUMERO"
"finca","OBJETO"
1600000,"NUMERO"
"finca","OBJETO"
600000,"NUMERO"
"finca","OBJETO"
4600000,"NUMERO"
"finca","OBJETO"
2600000,"NUMERO"
"finca","OBJETO"
3600000,"NUMERO"
"finca","OBJETO"
11600000,"NUMERO"
"finca","OBJETO"
100000,"NUMERO"
"finca","OBJETO"
1600000,"NUMERO"
"finca","OBJETO"
600000,"NUMERO"
"finca","OBJETO"
4600000,"NUMERO"
"finca","OBJETO"
2600000,"NUMERO"
"finca","OBJETO"
3600000,"NUMERO"
"finca","OBJETO"
11600000,"NUMERO"
"finca","OBJETO"
100000,"NUMERO"
"finca","OBJETO"
1600000,"NUMERO"
"finca","OBJETO"
600000,"NUMERO"
"finca","OBJETO"
4600000,"NUMERO"
"finca","OBJETO"
2600000,"NUMERO"
"finca","OBJETO"
3600000,"NUMERO"
"finca","OBJETO"
11600000,"NUMERO"
"finca","OBJETO"
100000,"NUMERO"
"finca","OBJETO"
1600000,"NUMERO"
"finca","OBJETO"
600000,"NUMERO"
"finca","OBJETO"
4600000,"NUMERO"
"finca","OBJETO"
2600000,"NUMERO"
"finca","OBJETO"
3600000,"NUMERO"
"finca","OBJETO"
11600000,"NUMERO"
"finca","OBJETO"
100000,"NUMERO"
"finca","OBJETO"
1600000,"NUMERO"
"finca","OBJETO"
600000,"NUMERO"
"finca","OBJETO"
4600000,"NUMERO"
"finca","OBJETO"
2600000,"NUMERO"
"finca","OBJETO"
3600000,"NUMERO"
"finca","OBJETO"
11600000,"NUMERO"
"finca","OBJETO"
100000,"NUMERO"
"finca","OBJETO"
1600000,"NUMERO"
"finca","OBJETO"
600000,"NUMERO"
"finca","OBJETO"
4600000,"NUMERO"
"finca","OBJETO"
2600000,"NUMERO"
"finca","OBJETO"
3600000,"NUMERO"
"finca","OBJETO"
11600000,"NUMERO"
"finca","OBJETO"
100000,"NUMERO"
"finca","OBJETO"
1600000,"NUMERO"
"finca","OBJETO"
600000,"NUMERO"
"finca","OBJETO"
4600000,"NUMERO"
"finca","OBJETO"
2600000,"NUMERO"
"finca","OBJETO"
3600000,"NUMERO"
"finca","OBJETO"
11600000,"NUMERO"
"finca","OBJETO"
100000,"NUMERO"
"finca","OBJETO"
1600000,"NUMERO"
"finca","OBJETO"
600000,"NUMERO"
"finca","OBJETO"
4600000,"NUMERO"
"finca","OBJETO"
2600000,"NUMERO"
"finca","OBJETO"
3600000,"NUMERO"
"finca","OBJETO"
11600000,"NUMERO"
"finca","OBJETO"
100000,"NUMERO"
"finca","OBJETO"
1600000,"NUMERO"
"finca","OBJETO"
600000,"NUMERO"
"finca","OBJETO"
4600000,"NUMERO"
"finca","OBJETO"
2600000,"NUMERO"
"finca","OBJETO"
3600000,"NUMERO"
"finca","OBJETO"
11600000,"NUMERO"
"finca","OBJETO"
100000,"NUMERO"
"finca","OBJETO"
1600000,"NUMERO"
"finca","OBJETO"
600000,"NUMERO"
"finca","OBJETO"
4600000,"NUMERO"
"finca","OBJETO"
2600000,"NUMERO"
"finca","OBJETO"
3600000,"NUMERO"
"finca","OBJETO"
11600000,"NUMERO"
"finca","OBJETO"
100000,"NUMERO"
"finca","OBJETO"
1600000,"NUMERO"
"finca","OBJETO"
600000,"NUMERO"
"finca","OBJETO"
4600000,"NUMERO"
"finca","OBJETO"
2600000,"NUMERO"
"finca","OBJETO"
3600000,"NUMERO"
"finca","OBJETO"
11600000,"NUMERO"
"finca","OBJETO"
100000,"NUMERO"
"finca","OBJETO"
1600000,"NUMERO"
"finca","OBJETO"
600000,"NUMERO"
"finca","OBJETO"
4600000,"NUMERO"
"finca","OBJETO"
2600000,"NUMERO"
"finca","OBJETO"
3600000,"NUMERO"
"finca","OBJETO"
11600000,"NUMERO"
"finca","OBJETO"
100000,"NUMERO"
