Term,Label
mil setecientos cincuenta y uno,NUMERO
1751,NUMERO
poder irrevocable,ACT_JUR
zaragoza,MUNICIPIO
veintinueve de julio de dos mil veinte,FECHA
ante mí,NOTARIO
augusto,NOM
ariño,APE1
garcía,APE2
belenguer,APE2
aragón,COLEGIO
como sustituto,NOT_SUSTI
imposibilidad accidental,CAUSA_SUSTI
don,GENERO
juan,NOM
antonio,NOM
yuste,APE1
gonzález,APE2
de rueda,APE2
