Term,Label
comparece,INFO-ZONA
escritura,ESCRITURA_DE
poder,ACT_JUR
don,GENERO
jorge,NOM
gracia,APE1
aliaga,APE2
soltero,EST_CIVIL
hostelería,PROFESION
muel,MUNICIPIO
zaragoza,PROVINCIA
ctra,TIP_VIA
"villar de los navarros,",VIA
47,NUMERO
dni,TIP_ID
72993192r,NUM_ID
