Term,Label
otorga,INFO-ZONA
confiere,APODERADO
poder,ACT_JUR
a favor,APODERADO
hija,PARENTESCO
doña,GENERO
joselin,NOM
gonzales,APE1
huanca,APE2
boliviana,NACIONALIDAD
cédula de identidad,TIP_ID
7320579,NUMERO
facultades,INFO-ZONA
035,NUMERO
091,NUMERO
012,NUMERO
urbanización,RESTO_DIREC
b,PTA
a nombre del  poderdante,TIPO_INTER
en nombre y representación,TIPO_INTER
escritura,ESCRITURA_DE
otorgamiento,INFO-ZONA
autorización,INFO-ZONA
escritura,ESCRITURA_DE
redactado,EXTENDIDA
cuatro,NUMERO
