Term,Label
mil quinientos ochenta y ocho,NUMERO
1588,NUMERO
poder,ACT_JUR
zaragoza,MUNICIPIO
dieciséis de julio de dos mil veinte,FECHA
ante mí,NOTARIO
juan,NOM
antonio,NOM
yuste,APE1
gonzález,APE2
de rueda,APE2
aragón,COLEGIO
