Term,Label
comparece,INFO-ZONA
doña,GENERO
carmen,NOM
mir,APE1
mestres,APE2
viuda,EST_CIVIL
ama de casa,PROFESION
4 de enero de 1929,FECHA
08025,NUMERO
barcelona,MUNICIPIO
calle,TIP_VIA
provença,VIA
525,NUMERO
4º,PLA
3ª,PTA
dni,TIP_ID
37017877k,NUM_ID
