Term,Label
comparece,INFO-ZONA
don,GENERO
joan,NOM
serra,APE1
sau,APE2
española,NACIONALIDAD
casado,EST_CIVIL
del comercio,PROFESION
08040,NUMERO
barcelona,MUNICIPIO
"mercabarna, pabellón",RESTO_DIREC
b,RESTO_DIREC
2050,NUMERO
dni,TIP_ID
33966826n,NUM_ID
