Term,Label
comparecen,INFO-ZONA
don,GENERO
miguel,NOM
valentín,APE1
carreras,APE1
calvete,APE2
doña,GENERO
natividad,NOM
lario,APE1
sanz,APE2
empresarios,PROFESION
zaragoza,MUNICIPIO
calle,TIP_VIA
messina,VIA
2,NUMERO
dni,TIP_ID
nif,TIP_ID
16914710g,NUM_ID
dni,TIP_ID
17365144y,NUM_ID
aragonés de consorcio conyugal,REG_ECO
