Term,Label
poder para pleitos,ACT_JUR
mil setecientos sesenta y seis,NUMERO
barcelona,MUNICIPIO
veintinueve de julio de dos mil veintiuno,FECHA
ante mí,NOTARIO
carlos,NOM
mateo,NOM
martínez,APE1
de bartolomé,APE2
catalunya,COLEGIO
