Term,Label
interviene,INFO-ZONA
en nombre y representación,TIPO_INTER
pedro,NOM
julvez bardaji,APE1
jubilado,PROFESION
casado,EST_CIVIL
zaragoza,MUNICIPIO
calle,TIP_VIA
vía ibérica,VIA
bloq 5,RESTO_DIREC
dni,TIP_ID
17116312b,NUM_ID
en virtud,TIPO_INTER
poder,ACT_JUR
escritura,ESCRITURA_DE
por mí,NOTARIO
trece de octubre de dos mil cinco,FECHA
2486,NUMERO
