Term,Label
dispone,INFO-ZONA
confiere,APODERADO
poder general,ACT_JUR
a favor,APODERADO
doña,GENERO
gemma,NOM
martinez,APE1
masia,APE2
soltera,EST_CIVIL
administrativa,PROFESION
igualada,MUNICIPIO
barcelona,PROVINCIA
rambla,TIP_VIA
sant isidre,VIA
20,NUMERO
3º,PLA
1ª,PTA
dni,TIP_ID
nif,TIP_ID
46781545m,NUM_ID
facultades,INFO-ZONA
autorización,INFO-ZONA
autorización,INFO-ZONA
protección de datos,INFO-ZONA
doy fe,INFO-ZONA
extendido,EXTENDIDA
quince,NUMERO
