Term,Label
comparece,INFO-ZONA
don,GENERO
ramon,NOM
luis,NOM
lletjos,APE1
castells,APE2
casado,EST_CIVIL
separación de bienes,REG_ECO
ingeniero,PROFESION
08028,NUMERO
barcelona,MUNICIPIO
avenida,TIP_VIA
madrid,VIA
139,NUMERO
derecha,PLA
3º,PLA
2ª,PTA
dni,TIP_ID
40844308b,NUM_ID
