Term,Label
interviene,INFO-ZONA
en representación,TIPO_INTER
don,GENERO
jose,NOM
manuel,NOM
lópez,APE1
floria,APE2
arquitecto,PROFESION
casado,EST_CIVIL
aragonés de consorcio conyugal,REG_ECO
doña,GENERO
maría,NOM
concepción,NOM
garrido,APE1
pascual,APE2
zaragoza,MUNICIPIO
jorge cocci,VIA
17,NUMERO
dni,TIP_ID
17868595x,NUM_ID
representación,REPRESENTANTE
poder,ACT_JUR
28 de noviembre de 2019,FECHA
notario,NOTARIO
zaragoza,MUNICIPIO
don,GENERO
francisco,NOM
de asis,NOM
sanchez,APE1
ventura,APE1
ferrer,APE2
4204,NUMERO
