Term,Label
dice,INFO-ZONA
confiere,APODERADO
poder para pleitos,ACT_JUR
procuradores,APODERADO
doña,GENERO
elena,NOM
hornos,APE1
turon,APE2
don,GENERO
jorge,NOM
juan,NOM
pérez,APE1
san pedro,APE2
don,GENERO
alberto,NOM
cortizo,APE1
muñoz,APE2
don,GENERO
andreu,NOM
oliva,APE1
basté,APE2
doña,GENERO
gracia,NOM
soler,APE1
garcía,APE2
don,GENERO
ruben,NOM
franquet,APE1
martin,APE2
letrados,APODERADO
barcelona,MUNICIPIO
doña,GENERO
chona,NOM
abiertas,APE1
tenorio,APE2
08019,NUMERO
barcelona,MUNICIPIO
avenida,TIP_VIA
diagonal,VIA
56,NUMERO
3º,PLA
3ª,PTA
chonaabiertas@icabcat,EMAIL
telefono,TELF
610536385,NUMERO
38506,NUMERO
don,GENERO
ramón,NOM
en nombre y representación,TIPO_INTER
facultades,INFO-ZONA
en nombre y representación,TIPO_INTER
protección de datos,INFO-ZONA
autorización,INFO-ZONA
escritura,ESCRITURA_DE
doy fe,INFO-ZONA
extendido,EXTENDIDA
siete,NUMERO
