Term,Label
comparece,INFO-ZONA
como poderdante,PARTE
don,GENERO
antonio,NOM
josé,NOM
rafael,NOM
villarosa,APE1
félix,APE2
filipina,NACIONALIDAD
soltero,EST_CIVIL
estudiante,PROFESION
barcelona,MUNICIPIO
avenida,TIP_VIA
diagonal,VIA
56,NUMERO
3º,PLA
3ª,PTA
08019,NUMERO
pasaporte,TIP_ID
p1302556b,NUM_NIE
31 de marzo de 2024,FECHA
escritura,ESCRITURA_DE
