Term,Label
dice y otorga,INFO-ZONA
confiere,APODERADO
poder especial,ACT_JUR
a favor,APODERADO
don,GENERO
edward,NOM
alfredo,APE1
ortiz,APE2
villon,APE2
soltero,EST_CIVIL
economista,PROFESION
dni,TIP_ID
47323372k,NUM_ID
en nombre y representación,TIPO_INTER
escritura,ESCRITURA_DE
otorgamiento,INFO-ZONA
autorización,INFO-ZONA
extendido,EXTENDIDA
tres,NUMERO
