Term,Label
comparece,INFO-ZONA
escritura,ESCRITURA_DE
sustitución de poder,ACT_JUR
don,GENERO
jesús,NOM
lópez,APE1
floria,APE2
abogado,PROFESION
casado,EST_CIVIL
zaragoza,MUNICIPIO
74,NUMERO
2º,PLA
derecha,PTA
dni,TIP_ID
17724162v,NUM_ID
