Term,Label
poder,ACT_JUR
ochocientos noventa y uno,NUMERO
zaragoza,MUNICIPIO
seis de marzo de dos mil veinte,FECHA
ante mí,NOTARIO
francisco,NOM
de asís,NOM
sánchez,APE1
ventura,APE1
ferrer,APE2
aragón,COLEGIO
zaragoza,MUNICIPIO
