Term,Label
comparece,INFO-ZONA
escritura,ESCRITURA_DE
poder,ACT_JUR
doña,GENERO
margarita,NOM
oliver,APE1
martinez,APE2
casada,EST_CIVIL
separación de bienes,REG_ECO
don,GENERO
alberto,NOM
pallares,APE1
borras,APE2
farmacéutica,PROFESION
zaragoza,MUNICIPIO
avda,TIP_VIA
anselmo clavé,VIA
7,NUMERO
dni,TIP_ID
42982753p,NUM_ID
