Term,Label
intervienen,INFO-ZONA
en su propio nombre y derecho,TIPO_INTER
poder especial,ACT_JUR
confieren,APODERADO
a favor,APODERADO
don,GENERO
julián,NOM
jesús,NOM
carreras,APE1
calvete,APE2
empresario,PROFESION
calle,TIP_VIA
messina,VIA
2,NUMERO
dni,TIP_ID
nif,TIP_ID
dni,TIP_ID
17061938d,NUM_ID
en nombre y representación,TIPO_INTER
