Term,Label
dice y otorgada,INFO-ZONA
"fruits joan serra, sl",NOM_SOCIEDAD
poder general y especial para pleitos,ACT_JUR
a favor,APODERADO
letrado,APODERADO
don,GENERO
alberto,NOM
alarcón,APE1
mondejar,APE2
dni,TIP_ID
38787036c,NUM_ID
barcelona,MUNICIPIO
a favor,APODERADO
graduada social,APODERADO
doña,GENERO
esther,NOM
benito,APE1
velasco,APE2
dni,TIP_ID
37376261l,NUM_ID
sociedad,SOCIEDAD
escritura,ESCRITURA_DE
otorgamiento,INFO-ZONA
autorización,INFO-ZONA
extendido,EXTENDIDA
cinco,NUMERO
