Term,Label
otorga,INFO-ZONA
sustituye el poder,ACT_JUR
a favor,APODERADO
don,GENERO
miguel,NOM
ángel,NOM
lópez,APE1
floria,APE2
ingeniero,PROFESION
casado,EST_CIVIL
aragonés de consorcio conyugal,REG_ECO
doña,GENERO
elvira,NOM
vila,APE1
de juan,APE2
zaragoza,MUNICIPIO
157,NUMERO
4º,PLA
derecha,PTA
dni,TIP_ID
25132718c,NUM_ID
en nombre de,TIPO_INTER
jose,NOM
manuel,NOM
lópez,APE1
floria,APE2
don,GENERO
jesus,NOM
lópez,APE1
floria,APE2
apodera,APODERADO
don,GENERO
miguel,NOM
ángel,NOM
lópez,APE1
floria,APE2
ingeniero,PROFESION
zaragoza,MUNICIPIO
157,NUMERO
4º,PLA
derecha,PTA
dni,TIP_ID
25132718c,NUM_ID
extendido,EXTENDIDA
seis,NUMERO
