Term,Label
setecientos dieciocho,NUMERO
poder para pleitos,ACT_JUR
barcelona,MUNICIPIO
tres de marzo de dos mil veintiuno,FECHA
ante mí,NOTARIO
rosa,NOM
maría,NOM
pérez,APE1
paniagua,APE2
cataluña,COLEGIO
calle,TIP_VIA
longitudinal,VIA
4,NUMERO
22,NUMERO
edificio bancos,RESTO_DIREC
"local 17, de mercabarna",RESTO_DIREC
