Term,Label
comparece,INFO-ZONA
don,GENERO
jorge,NOM
samper,APE1
rivas,APE2
empresario,PROFESION
casado,EST_CIVIL
zaragoza,MUNICIPIO
avenida,TIP_VIA
academia general militar,VIA
32,NUMERO
52,NUMERO
dni,TIP_ID
nif,TIP_ID
25450736v,NUM_ID
