Term,Label
comparece,INFO-ZONA
don,GENERO
jose,NOM
luis,NOM
gonzales,APE1
ledezma,APE2
española,NACIONALIDAD
boliviana,APE2
casado,EST_CIVIL
carpintero,PROFESION
08022,NUMERO
barcelona,MUNICIPIO
calle,TIP_VIA
folgueroles,VIA
15,NUMERO
4º,PLA
2ª,PTA
26617790m,NUM_ID
cédula de identidad,TIP_ID
5757419,NUMERO
